<?xml version="1.0" encoding="utf-8"?>
<!-- Generator: Adobe Illustrator 16.0.0, SVG Export Plug-In . SVG Version: 6.00 Build 0)  -->
<!DOCTYPE svg PUBLIC "-//W3C//DTD SVG 1.1//EN" "http://www.w3.org/Graphics/SVG/1.1/DTD/svg11.dtd">
<svg version="1.1" id="Layer_1" xmlns="http://www.w3.org/2000/svg" xmlns:xlink="http://www.w3.org/1999/xlink" x="0px" y="0px"
	 width="237.19px" height="60.828px" viewBox="0 0 237.19 60.828" enable-background="new 0 0 237.19 60.828" xml:space="preserve">
<g>
	<path fill="#2a4781" d="M232.438,25.698v-2.945c0-0.266-0.215-0.481-0.481-0.481h-7.238c-0.081,0.021-0.157,0.042-0.238,0.063l-5.803,3.308
		l-42.549-0.002c-1.65,0-2.987-1.337-2.987-2.988V11.274h-65.166c-1.948,0-3.527-1.579-3.527-3.527V0H81.79L79.8,1.879H68.195v2.155
		h-7.46v8.692c0,0.266,0.215,0.481,0.481,0.481h1.974c2.123,0,3.844,1.721,3.844,3.845v6.488c0,1.1-0.891,1.991-1.991,1.991H0v3.206
		h5.139v3.11c0,0.267,0.216,0.482,0.481,0.482h7.166c0.091-0.027,0.176-0.053,0.266-0.08l5.295-3.512H237.19v-3.04H232.438z
		 M170.377,22.653c0,1.652-1.34,2.99-2.991,2.988l-96.097-0.106c-1.099-0.001-1.989-0.893-1.989-1.991v-6.49
		c0-1.864,2.025-3.845,3.89-3.845h24.571l1.161,0.884h68.612c1.57,0,2.844,1.273,2.844,2.844V22.653z"/>
	<g>
		<path fill="#2a4781" d="M13.078,43.661L5.196,60.537h3.183l1.263-2.931h6.922l1.263,2.931h3.234L13.078,43.661z M10.653,55.156l2.476-5.685
			l2.451,5.685H10.653z"/>
		<polygon fill="#2a4781" points="31.25,60.537 41.885,60.537 41.885,57.884 34.079,57.884 34.079,53.336 40.723,53.336 40.723,50.937 
			34.079,50.937 34.079,46.49 41.658,46.49 41.658,43.863 31.25,43.863 		"/>
		<path fill="#2a4781" d="M62.394,53.968c0,0,3.132-1.137,3.132-4.926c0-3.79-3.284-5.18-6.366-5.18s-5.457,0-5.457,0v16.674h2.805v-6.139h2.854
			L63,60.537h3.31L62.394,53.968z M59.463,51.896c-2.097,0-2.956,0-2.956,0v-5.507c0,0,1.288,0,2.956,0s3.208,0.858,3.208,2.678
			S61.56,51.896,59.463,51.896z"/>
		<path fill="#2a4781" d="M156.999,51.626c1.198-0.72,1.781-1.951,1.781-3.631c0-2.39-1.895-4.133-5.305-4.133c-2.708,0-6.049,0-6.049,0v7.338v1.16
			v8.176c0,0,3.203,0,6.944,0c3.74,0,5.723-1.713,5.723-4.797C160.094,53.613,158.786,52.261,156.999,51.626z M150.23,46.464
			c0,0,1.19,0,2.731,0c1.54,0,2.964,0.683,2.964,2.127s-1.027,2.247-2.964,2.247c-1.938,0-2.731,0-2.731,0V46.464z M154.114,57.945
			c-2.092,0-3.884,0-3.884,0v-4.723c0,0,2.221,0,3.884,0s3.201,0.737,3.201,2.297C157.315,57.08,156.206,57.945,154.114,57.945z"/>
		<path fill="#2a4781" d="M83.445,43.611c-4.66,0-8.438,3.846-8.438,8.589s3.778,8.589,8.438,8.589c4.66,0,8.438-3.846,8.438-8.589
			S88.104,43.611,83.445,43.611z M83.445,58.192c-3.083,0-5.583-2.683-5.583-5.992s2.5-5.992,5.583-5.992s5.583,2.683,5.583,5.992
			S86.528,58.192,83.445,58.192z"/>
		<polygon fill="#2a4781" points="100.277,60.537 100.277,43.863 103.157,43.863 103.157,50.708 110.686,50.708 110.686,43.863 113.49,43.863 
			113.49,60.537 110.686,60.537 110.686,53.311 103.157,53.311 103.157,60.537 		"/>
		<path fill="#2a4781" d="M133.72,43.863v10.712c0,2.248-1.238,3.617-3.31,3.617s-3.512-1.218-3.512-3.617V43.863h-2.804v10.712
			c0,4.042,2.526,6.189,6.265,6.189c3.739,0,6.189-2.147,6.189-6.189V43.863H133.72z"/>
		<polygon fill="#2a4781" points="173.461,43.908 173.461,60.582 174.436,60.582 178.808,53.048 183.997,60.582 185.393,60.582 179.427,51.968 
			184.129,43.908 182.785,43.908 174.646,58.184 174.646,43.908 		"/>
		<path fill="#2a4781" d="M207.616,43.908v11.04c0,2.239-1.19,4.823-4.751,4.823s-4.75-2.584-4.75-4.823v-11.04h-1.166c0,0,0,10.328,0,10.568
			c0,4.307,2.136,6.352,5.916,6.352c3.781,0,5.916-2.045,5.916-6.352c0-0.24,0-10.568,0-10.568H207.616z"/>
		<polygon fill="#2a4781" points="220.17,60.582 220.17,43.572 220.27,43.572 231.312,57.795 231.312,43.908 232.438,43.908 232.438,60.828 
			232.319,60.828 221.336,46.673 221.336,60.582 		"/>
	</g>
</g>
</svg>
